[
  {
    "id": "1",
    "text": "Утка с утятами, курица с цыплятами пошли гулять. Шли-шли к речке пришли. Утка с утятами умеют плавать, а курица с цыплятами не умеют. Что делать? Думали- думали и придумали! Речку переплыли ровно в полминутки: цыплёнок на утёнке, цыплёнок на утёнке, а курица на утке!"
  }
]
